{
    "app-id": "org.example.issue2107",
    "runtime": "org.gnome.Platform",
    "runtime-version": "master",
    "sdk": "org.gnome.Sdk",
    "command": "issue2107",
    "finish-args": [
        "--share=network",
        "--share=ipc",
        "--socket=fallback-x11",
        "--socket=wayland",
        "--device=dri"
    ],
    "build-options": {
        "cflags": "-O2 -g",
        "cxxflags": "-O2 -g",
        "env": {
            "V": "1"
        }
    },
    "cleanup": [
        "/include",
        "/lib/pkgconfig",
        "/man",
        "/share/doc",
        "/share/gtk-doc",
        "/share/man",
        "/share/pkgconfig",
        "/share/vala",
        "*.la",
        "*.a"
    ],
    "modules": [
        {
            "name": "issue2107",
            "builddir": true,
            "buildsystem": "meson",
            "sources": [
                {
                    "type": "git",
                    "url": "file:///home/exalm/Projects/issue2107"
                }
            ]
        }
    ]
}
